{
    "id"              : "",
    "avatar"          : "",
    "name"            : "",
    "emails"          : [""],
    "redes"           : [""],
    "phoneNumbers"    : [""],
    "paisporusuario"  : [""],
    "title"           : "",
    "company"         : "",
    "address"         : "",
    "addressShop"     : "",
    "notes"           : "",
    "tags"            : [""],
    "tagsSocials"     : [""]    
}